// -*- mode: Go;-*-
module gitlab.com/esr/reposurgeon

require (
	github.com/acomagu/trie v1.0.0
	github.com/anmitsu/go-shlex v0.0.0-20161002113705-648efa622239
	github.com/emirpasic/gods v1.12.0
	github.com/flynn/go-shlex v0.0.0-20150515145356-3f9db97f8568 // indirect
	github.com/google/go-cmp v0.3.1
	github.com/google/uuid v1.1.1
	github.com/ianbruene/go-difflib v1.1.2
	github.com/kballard/go-shellquote v0.0.0-20180428030007-95032a82bc51
	github.com/termie/go-shutil v0.0.0-20140729215957-bcacb06fecae
	gitlab.com/esr/fqme v0.1.0
	gitlab.com/ianbruene/kommandant v0.6.0
	golang.org/x/crypto v0.0.0-20191206172530-e9b2fee46413
	golang.org/x/net v0.0.0-20191112182307-2180aed22343 // indirect
	golang.org/x/sync v0.0.0-20190911185100-cd5d95a43a6e
	golang.org/x/sys v0.0.0-20191210023423-ac6580df4449 // indirect
	golang.org/x/text v0.3.2
	golang.org/x/tools v0.0.0-20200125223703-d33eef8e6825 // indirect
)

go 1.13
